simulation/qsim/ProcessadorMIPS.msim.vcd
$comment
	File created using the following command:
		vcd file ProcessadorMIPS.msim.vcd -direction
$end
$date
	Tue Nov 22 23:54:05 2016
$end
$version
	ModelSim Version 10.5b
$end
$timescale
	1ps
$end

$scope module processor_vhd_vec_tst $end
$var wire 1 ! clk $end
$var wire 1 " clr $end
$var wire 1 # dbg [0] $end
$var wire 1 $ dbg [1] $end
$var wire 1 % dbg [2] $end
$var wire 1 & dbg [3] $end
$var wire 1 ' dbg [4] $end
$var wire 1 ( dbg [5] $end
$var wire 1 ) dbg [6] $end
$var wire 1 * dbg [7] $end
$var wire 1 + dbg [8] $end
$var wire 1 , dbg [9] $end
$var wire 1 - dbg [10] $end
$var wire 1 . dbg [11] $end
$var wire 1 / dbg [12] $end
$var wire 1 0 dbg [13] $end
$var wire 1 1 dbg [14] $end
$var wire 1 2 dbg [15] $end
$var wire 1 3 dbg [16] $end
$var wire 1 4 dbg [17] $end
$var wire 1 5 dbg [18] $end
$var wire 1 6 dbg [19] $end
$var wire 1 7 dbg [20] $end
$var wire 1 8 dbg [21] $end
$var wire 1 9 dbg [22] $end
$var wire 1 : dbg [23] $end
$var wire 1 ; dbg [24] $end
$var wire 1 < dbg [25] $end
$var wire 1 = dbg [26] $end
$var wire 1 > dbg [27] $end
$var wire 1 ? dbg [28] $end
$var wire 1 @ dbg [29] $end
$var wire 1 A dbg [30] $end
$var wire 1 B dbg [31] $end
$var wire 1 C f [0] $end
$var wire 1 D f [1] $end
$var wire 1 E f [2] $end
$var wire 1 F f [3] $end
$var wire 1 G f [4] $end
$var wire 1 H f [5] $end
$var wire 1 I f [6] $end
$var wire 1 J f [7] $end
$var wire 1 K f [8] $end
$var wire 1 L f [9] $end
$var wire 1 M f [10] $end
$var wire 1 N f [11] $end
$var wire 1 O f [12] $end
$var wire 1 P f [13] $end
$var wire 1 Q f [14] $end
$var wire 1 R f [15] $end
$var wire 1 S f [16] $end
$var wire 1 T f [17] $end
$var wire 1 U f [18] $end
$var wire 1 V f [19] $end
$var wire 1 W f [20] $end
$var wire 1 X f [21] $end
$var wire 1 Y f [22] $end
$var wire 1 Z f [23] $end
$var wire 1 [ f [24] $end
$var wire 1 \ f [25] $end
$var wire 1 ] f [26] $end
$var wire 1 ^ f [27] $end
$var wire 1 _ f [28] $end
$var wire 1 ` f [29] $end
$var wire 1 a f [30] $end
$var wire 1 b f [31] $end
$var wire 1 c t [0] $end

$scope module i1 $end
$var wire 1 d gnd $end
$var wire 1 e vcc $end
$var wire 1 f unknown $end
$var wire 1 g devoe $end
$var wire 1 h devclrn $end
$var wire 1 i devpor $end
$var wire 1 j ww_devoe $end
$var wire 1 k ww_devclrn $end
$var wire 1 l ww_devpor $end
$var wire 1 m ww_clk $end
$var wire 1 n ww_clr $end
$var wire 1 o ww_f [0] $end
$var wire 1 p ww_f [1] $end
$var wire 1 q ww_f [2] $end
$var wire 1 r ww_f [3] $end
$var wire 1 s ww_f [4] $end
$var wire 1 t ww_f [5] $end
$var wire 1 u ww_f [6] $end
$var wire 1 v ww_f [7] $end
$var wire 1 w ww_f [8] $end
$var wire 1 x ww_f [9] $end
$var wire 1 y ww_f [10] $end
$var wire 1 z ww_f [11] $end
$var wire 1 { ww_f [12] $end
$var wire 1 | ww_f [13] $end
$var wire 1 } ww_f [14] $end
$var wire 1 ~ ww_f [15] $end
$var wire 1 !! ww_f [16] $end
$var wire 1 "! ww_f [17] $end
$var wire 1 #! ww_f [18] $end
$var wire 1 $! ww_f [19] $end
$var wire 1 %! ww_f [20] $end
$var wire 1 &! ww_f [21] $end
$var wire 1 '! ww_f [22] $end
$var wire 1 (! ww_f [23] $end
$var wire 1 )! ww_f [24] $end
$var wire 1 *! ww_f [25] $end
$var wire 1 +! ww_f [26] $end
$var wire 1 ,! ww_f [27] $end
$var wire 1 -! ww_f [28] $end
$var wire 1 .! ww_f [29] $end
$var wire 1 /! ww_f [30] $end
$var wire 1 0! ww_f [31] $end
$var wire 1 1! ww_dbg [0] $end
$var wire 1 2! ww_dbg [1] $end
$var wire 1 3! ww_dbg [2] $end
$var wire 1 4! ww_dbg [3] $end
$var wire 1 5! ww_dbg [4] $end
$var wire 1 6! ww_dbg [5] $end
$var wire 1 7! ww_dbg [6] $end
$var wire 1 8! ww_dbg [7] $end
$var wire 1 9! ww_dbg [8] $end
$var wire 1 :! ww_dbg [9] $end
$var wire 1 ;! ww_dbg [10] $end
$var wire 1 <! ww_dbg [11] $end
$var wire 1 =! ww_dbg [12] $end
$var wire 1 >! ww_dbg [13] $end
$var wire 1 ?! ww_dbg [14] $end
$var wire 1 @! ww_dbg [15] $end
$var wire 1 A! ww_dbg [16] $end
$var wire 1 B! ww_dbg [17] $end
$var wire 1 C! ww_dbg [18] $end
$var wire 1 D! ww_dbg [19] $end
$var wire 1 E! ww_dbg [20] $end
$var wire 1 F! ww_dbg [21] $end
$var wire 1 G! ww_dbg [22] $end
$var wire 1 H! ww_dbg [23] $end
$var wire 1 I! ww_dbg [24] $end
$var wire 1 J! ww_dbg [25] $end
$var wire 1 K! ww_dbg [26] $end
$var wire 1 L! ww_dbg [27] $end
$var wire 1 M! ww_dbg [28] $end
$var wire 1 N! ww_dbg [29] $end
$var wire 1 O! ww_dbg [30] $end
$var wire 1 P! ww_dbg [31] $end
$var wire 1 Q! ww_t [0] $end
$var wire 1 R! \clr~inputclkctrl_INCLK_bus\ [3] $end
$var wire 1 S! \clr~inputclkctrl_INCLK_bus\ [2] $end
$var wire 1 T! \clr~inputclkctrl_INCLK_bus\ [1] $end
$var wire 1 U! \clr~inputclkctrl_INCLK_bus\ [0] $end
$var wire 1 V! \clk~inputclkctrl_INCLK_bus\ [3] $end
$var wire 1 W! \clk~inputclkctrl_INCLK_bus\ [2] $end
$var wire 1 X! \clk~inputclkctrl_INCLK_bus\ [1] $end
$var wire 1 Y! \clk~inputclkctrl_INCLK_bus\ [0] $end
$var wire 1 Z! \f[31]~output_o\ $end
$var wire 1 [! \f[30]~output_o\ $end
$var wire 1 \! \f[29]~output_o\ $end
$var wire 1 ]! \f[28]~output_o\ $end
$var wire 1 ^! \f[27]~output_o\ $end
$var wire 1 _! \f[26]~output_o\ $end
$var wire 1 `! \f[25]~output_o\ $end
$var wire 1 a! \f[24]~output_o\ $end
$var wire 1 b! \f[23]~output_o\ $end
$var wire 1 c! \f[22]~output_o\ $end
$var wire 1 d! \f[21]~output_o\ $end
$var wire 1 e! \f[20]~output_o\ $end
$var wire 1 f! \f[19]~output_o\ $end
$var wire 1 g! \f[18]~output_o\ $end
$var wire 1 h! \f[17]~output_o\ $end
$var wire 1 i! \f[16]~output_o\ $end
$var wire 1 j! \f[15]~output_o\ $end
$var wire 1 k! \f[14]~output_o\ $end
$var wire 1 l! \f[13]~output_o\ $end
$var wire 1 m! \f[12]~output_o\ $end
$var wire 1 n! \f[11]~output_o\ $end
$var wire 1 o! \f[10]~output_o\ $end
$var wire 1 p! \f[9]~output_o\ $end
$var wire 1 q! \f[8]~output_o\ $end
$var wire 1 r! \f[7]~output_o\ $end
$var wire 1 s! \f[6]~output_o\ $end
$var wire 1 t! \f[5]~output_o\ $end
$var wire 1 u! \f[4]~output_o\ $end
$var wire 1 v! \f[3]~output_o\ $end
$var wire 1 w! \f[2]~output_o\ $end
$var wire 1 x! \f[1]~output_o\ $end
$var wire 1 y! \f[0]~output_o\ $end
$var wire 1 z! \dbg[31]~output_o\ $end
$var wire 1 {! \dbg[30]~output_o\ $end
$var wire 1 |! \dbg[29]~output_o\ $end
$var wire 1 }! \dbg[28]~output_o\ $end
$var wire 1 ~! \dbg[27]~output_o\ $end
$var wire 1 !" \dbg[26]~output_o\ $end
$var wire 1 "" \dbg[25]~output_o\ $end
$var wire 1 #" \dbg[24]~output_o\ $end
$var wire 1 $" \dbg[23]~output_o\ $end
$var wire 1 %" \dbg[22]~output_o\ $end
$var wire 1 &" \dbg[21]~output_o\ $end
$var wire 1 '" \dbg[20]~output_o\ $end
$var wire 1 (" \dbg[19]~output_o\ $end
$var wire 1 )" \dbg[18]~output_o\ $end
$var wire 1 *" \dbg[17]~output_o\ $end
$var wire 1 +" \dbg[16]~output_o\ $end
$var wire 1 ," \dbg[15]~output_o\ $end
$var wire 1 -" \dbg[14]~output_o\ $end
$var wire 1 ." \dbg[13]~output_o\ $end
$var wire 1 /" \dbg[12]~output_o\ $end
$var wire 1 0" \dbg[11]~output_o\ $end
$var wire 1 1" \dbg[10]~output_o\ $end
$var wire 1 2" \dbg[9]~output_o\ $end
$var wire 1 3" \dbg[8]~output_o\ $end
$var wire 1 4" \dbg[7]~output_o\ $end
$var wire 1 5" \dbg[6]~output_o\ $end
$var wire 1 6" \dbg[5]~output_o\ $end
$var wire 1 7" \dbg[4]~output_o\ $end
$var wire 1 8" \dbg[3]~output_o\ $end
$var wire 1 9" \dbg[2]~output_o\ $end
$var wire 1 :" \dbg[1]~output_o\ $end
$var wire 1 ;" \dbg[0]~output_o\ $end
$var wire 1 <" \t[0]~output_o\ $end
$var wire 1 =" \clk~input_o\ $end
$var wire 1 >" \clk~inputclkctrl_outclk\ $end
$var wire 1 ?" \test|mem[0]~0_combout\ $end
$var wire 1 @" \clr~input_o\ $end
$var wire 1 A" \clr~inputclkctrl_outclk\ $end
$var wire 1 B" \test|q[0]~feeder_combout\ $end
$var wire 1 C" \test|q\ [31] $end
$var wire 1 D" \test|q\ [30] $end
$var wire 1 E" \test|q\ [29] $end
$var wire 1 F" \test|q\ [28] $end
$var wire 1 G" \test|q\ [27] $end
$var wire 1 H" \test|q\ [26] $end
$var wire 1 I" \test|q\ [25] $end
$var wire 1 J" \test|q\ [24] $end
$var wire 1 K" \test|q\ [23] $end
$var wire 1 L" \test|q\ [22] $end
$var wire 1 M" \test|q\ [21] $end
$var wire 1 N" \test|q\ [20] $end
$var wire 1 O" \test|q\ [19] $end
$var wire 1 P" \test|q\ [18] $end
$var wire 1 Q" \test|q\ [17] $end
$var wire 1 R" \test|q\ [16] $end
$var wire 1 S" \test|q\ [15] $end
$var wire 1 T" \test|q\ [14] $end
$var wire 1 U" \test|q\ [13] $end
$var wire 1 V" \test|q\ [12] $end
$var wire 1 W" \test|q\ [11] $end
$var wire 1 X" \test|q\ [10] $end
$var wire 1 Y" \test|q\ [9] $end
$var wire 1 Z" \test|q\ [8] $end
$var wire 1 [" \test|q\ [7] $end
$var wire 1 \" \test|q\ [6] $end
$var wire 1 ]" \test|q\ [5] $end
$var wire 1 ^" \test|q\ [4] $end
$var wire 1 _" \test|q\ [3] $end
$var wire 1 `" \test|q\ [2] $end
$var wire 1 a" \test|q\ [1] $end
$var wire 1 b" \test|q\ [0] $end
$var wire 1 c" \test|mem\ [31] $end
$var wire 1 d" \test|mem\ [30] $end
$var wire 1 e" \test|mem\ [29] $end
$var wire 1 f" \test|mem\ [28] $end
$var wire 1 g" \test|mem\ [27] $end
$var wire 1 h" \test|mem\ [26] $end
$var wire 1 i" \test|mem\ [25] $end
$var wire 1 j" \test|mem\ [24] $end
$var wire 1 k" \test|mem\ [23] $end
$var wire 1 l" \test|mem\ [22] $end
$var wire 1 m" \test|mem\ [21] $end
$var wire 1 n" \test|mem\ [20] $end
$var wire 1 o" \test|mem\ [19] $end
$var wire 1 p" \test|mem\ [18] $end
$var wire 1 q" \test|mem\ [17] $end
$var wire 1 r" \test|mem\ [16] $end
$var wire 1 s" \test|mem\ [15] $end
$var wire 1 t" \test|mem\ [14] $end
$var wire 1 u" \test|mem\ [13] $end
$var wire 1 v" \test|mem\ [12] $end
$var wire 1 w" \test|mem\ [11] $end
$var wire 1 x" \test|mem\ [10] $end
$var wire 1 y" \test|mem\ [9] $end
$var wire 1 z" \test|mem\ [8] $end
$var wire 1 {" \test|mem\ [7] $end
$var wire 1 |" \test|mem\ [6] $end
$var wire 1 }" \test|mem\ [5] $end
$var wire 1 ~" \test|mem\ [4] $end
$var wire 1 !# \test|mem\ [3] $end
$var wire 1 "# \test|mem\ [2] $end
$var wire 1 ## \test|mem\ [1] $end
$var wire 1 $# \test|mem\ [0] $end
$var wire 1 %# \ALT_INV_clk~inputclkctrl_outclk\ $end
$var wire 1 &# \ALT_INV_clk~input_o\ $end
$var wire 1 '# \test|ALT_INV_q\ [0] $end
$upscope $end
$upscope $end
$enddefinitions $end
#0
$dumpvars
0!
1"
0d
1e
xf
1g
1h
1i
1j
1k
1l
0m
1n
1Z!
1[!
1\!
1]!
1^!
1_!
1`!
1a!
1b!
1c!
1d!
1e!
1f!
1g!
1h!
1i!
1j!
1k!
1l!
1m!
1n!
1o!
1p!
1q!
1r!
1s!
1t!
1u!
1v!
1w!
1x!
1y!
0z!
0{!
0|!
0}!
0~!
0!"
0""
0#"
0$"
0%"
0&"
0'"
0("
0)"
0*"
0+"
0,"
0-"
0."
0/"
00"
01"
02"
03"
04"
05"
06"
07"
08"
09"
0:"
0;"
1<"
0="
0>"
1?"
1@"
1A"
0B"
1%#
1&#
1o
1p
1q
1r
1s
1t
1u
1v
1w
1x
1y
1z
1{
1|
1}
1~
1!!
1"!
1#!
1$!
1%!
1&!
1'!
1(!
1)!
1*!
1+!
1,!
1-!
1.!
1/!
10!
01!
02!
03!
04!
05!
06!
07!
08!
09!
0:!
0;!
0<!
0=!
0>!
0?!
0@!
0A!
0B!
0C!
0D!
0E!
0F!
0G!
0H!
0I!
0J!
0K!
0L!
0M!
0N!
0O!
0P!
1Q!
xC"
xD"
xE"
xF"
xG"
xH"
xI"
xJ"
xK"
xL"
xM"
xN"
xO"
xP"
xQ"
xR"
xS"
xT"
xU"
xV"
xW"
xX"
xY"
xZ"
x["
x\"
x]"
x^"
x_"
x`"
xa"
0b"
xc"
xd"
xe"
xf"
xg"
xh"
xi"
xj"
xk"
xl"
xm"
xn"
xo"
xp"
xq"
xr"
xs"
xt"
xu"
xv"
xw"
xx"
xy"
xz"
x{"
x|"
x}"
x~"
x!#
x"#
x##
0$#
1'#
1V!
1W!
1X!
0Y!
1R!
1S!
1T!
1U!
0#
0$
0%
0&
0'
0(
0)
0*
0+
0,
0-
0.
0/
00
01
02
03
04
05
06
07
08
09
0:
0;
0<
0=
0>
0?
0@
0A
0B
1C
1D
1E
1F
1G
1H
1I
1J
1K
1L
1M
1N
1O
1P
1Q
1R
1S
1T
1U
1V
1W
1X
1Y
1Z
1[
1\
1]
1^
1_
1`
1a
1b
1c
$end
#500000
1!
1m
1="
0&#
1Y!
1>"
0<"
0%#
1$#
0Q!
0c
1B"
#1000000
0!
0m
0="
1&#
0Y!
0>"
1<"
1%#
1Q!
1b"
1c
0'#
0?"
1z!
1{!
1|!
1}!
1~!
1!"
1""
1#"
1$"
1%"
1&"
1'"
1("
1)"
1*"
1+"
1,"
1-"
1."
1/"
10"
11"
12"
13"
14"
15"
16"
17"
18"
19"
1:"
1;"
0Z!
0[!
0\!
0]!
0^!
0_!
0`!
0a!
0b!
0c!
0d!
0e!
0f!
0g!
0h!
0i!
0j!
0k!
0l!
0m!
0n!
0o!
0p!
0q!
0r!
0s!
0t!
0u!
0v!
0w!
0x!
0y!
1P!
1O!
1N!
1M!
1L!
1K!
1J!
1I!
1H!
1G!
1F!
1E!
1D!
1C!
1B!
1A!
1@!
1?!
1>!
1=!
1<!
1;!
1:!
19!
18!
17!
16!
15!
14!
13!
12!
11!
00!
0/!
0.!
0-!
0,!
0+!
0*!
0)!
0(!
0'!
0&!
0%!
0$!
0#!
0"!
0!!
0~
0}
0|
0{
0z
0y
0x
0w
0v
0u
0t
0s
0r
0q
0p
0o
1B
1A
1@
1?
1>
1=
1<
1;
1:
19
18
17
16
15
14
13
12
11
10
1/
1.
1-
1,
1+
1*
1)
1(
1'
1&
1%
1$
1#
0b
0a
0`
0_
0^
0]
0\
0[
0Z
0Y
0X
0W
0V
0U
0T
0S
0R
0Q
0P
0O
0N
0M
0L
0K
0J
0I
0H
0G
0F
0E
0D
0C
#1500000
1!
1m
1="
0&#
1Y!
1>"
0<"
0%#
0$#
0Q!
0c
0B"
#2000000
0!
0m
0="
1&#
0Y!
0>"
1<"
1%#
1Q!
0b"
1c
1'#
1?"
0z!
0{!
0|!
0}!
0~!
0!"
0""
0#"
0$"
0%"
0&"
0'"
0("
0)"
0*"
0+"
0,"
0-"
0."
0/"
00"
01"
02"
03"
04"
05"
06"
07"
08"
09"
0:"
0;"
1Z!
1[!
1\!
1]!
1^!
1_!
1`!
1a!
1b!
1c!
1d!
1e!
1f!
1g!
1h!
1i!
1j!
1k!
1l!
1m!
1n!
1o!
1p!
1q!
1r!
1s!
1t!
1u!
1v!
1w!
1x!
1y!
0P!
0O!
0N!
0M!
0L!
0K!
0J!
0I!
0H!
0G!
0F!
0E!
0D!
0C!
0B!
0A!
0@!
0?!
0>!
0=!
0<!
0;!
0:!
09!
08!
07!
06!
05!
04!
03!
02!
01!
10!
1/!
1.!
1-!
1,!
1+!
1*!
1)!
1(!
1'!
1&!
1%!
1$!
1#!
1"!
1!!
1~
1}
1|
1{
1z
1y
1x
1w
1v
1u
1t
1s
1r
1q
1p
1o
0B
0A
0@
0?
0>
0=
0<
0;
0:
09
08
07
06
05
04
03
02
01
00
0/
0.
0-
0,
0+
0*
0)
0(
0'
0&
0%
0$
0#
1b
1a
1`
1_
1^
1]
1\
1[
1Z
1Y
1X
1W
1V
1U
1T
1S
1R
1Q
1P
1O
1N
1M
1L
1K
1J
1I
1H
1G
1F
1E
1D
1C
#2500000
1!
1m
1="
0&#
1Y!
1>"
0<"
0%#
1$#
0Q!
0c
1B"
#3000000
0!
0m
0="
1&#
0Y!
0>"
1<"
1%#
1Q!
1b"
1c
0'#
0?"
1z!
1{!
1|!
1}!
1~!
1!"
1""
1#"
1$"
1%"
1&"
1'"
1("
1)"
1*"
1+"
1,"
1-"
1."
1/"
10"
11"
12"
13"
14"
15"
16"
17"
18"
19"
1:"
1;"
0Z!
0[!
0\!
0]!
0^!
0_!
0`!
0a!
0b!
0c!
0d!
0e!
0f!
0g!
0h!
0i!
0j!
0k!
0l!
0m!
0n!
0o!
0p!
0q!
0r!
0s!
0t!
0u!
0v!
0w!
0x!
0y!
1P!
1O!
1N!
1M!
1L!
1K!
1J!
1I!
1H!
1G!
1F!
1E!
1D!
1C!
1B!
1A!
1@!
1?!
1>!
1=!
1<!
1;!
1:!
19!
18!
17!
16!
15!
14!
13!
12!
11!
00!
0/!
0.!
0-!
0,!
0+!
0*!
0)!
0(!
0'!
0&!
0%!
0$!
0#!
0"!
0!!
0~
0}
0|
0{
0z
0y
0x
0w
0v
0u
0t
0s
0r
0q
0p
0o
1B
1A
1@
1?
1>
1=
1<
1;
1:
19
18
17
16
15
14
13
12
11
10
1/
1.
1-
1,
1+
1*
1)
1(
1'
1&
1%
1$
1#
0b
0a
0`
0_
0^
0]
0\
0[
0Z
0Y
0X
0W
0V
0U
0T
0S
0R
0Q
0P
0O
0N
0M
0L
0K
0J
0I
0H
0G
0F
0E
0D
0C
#3500000
1!
1m
1="
0&#
1Y!
1>"
0<"
0%#
0$#
0Q!
0c
0B"
#4000000
0!
0m
0="
1&#
0Y!
0>"
1<"
1%#
1Q!
0b"
1c
1'#
1?"
0z!
0{!
0|!
0}!
0~!
0!"
0""
0#"
0$"
0%"
0&"
0'"
0("
0)"
0*"
0+"
0,"
0-"
0."
0/"
00"
01"
02"
03"
04"
05"
06"
07"
08"
09"
0:"
0;"
1Z!
1[!
1\!
1]!
1^!
1_!
1`!
1a!
1b!
1c!
1d!
1e!
1f!
1g!
1h!
1i!
1j!
1k!
1l!
1m!
1n!
1o!
1p!
1q!
1r!
1s!
1t!
1u!
1v!
1w!
1x!
1y!
0P!
0O!
0N!
0M!
0L!
0K!
0J!
0I!
0H!
0G!
0F!
0E!
0D!
0C!
0B!
0A!
0@!
0?!
0>!
0=!
0<!
0;!
0:!
09!
08!
07!
06!
05!
04!
03!
02!
01!
10!
1/!
1.!
1-!
1,!
1+!
1*!
1)!
1(!
1'!
1&!
1%!
1$!
1#!
1"!
1!!
1~
1}
1|
1{
1z
1y
1x
1w
1v
1u
1t
1s
1r
1q
1p
1o
0B
0A
0@
0?
0>
0=
0<
0;
0:
09
08
07
06
05
04
03
02
01
00
0/
0.
0-
0,
0+
0*
0)
0(
0'
0&
0%
0$
0#
1b
1a
1`
1_
1^
1]
1\
1[
1Z
1Y
1X
1W
1V
1U
1T
1S
1R
1Q
1P
1O
1N
1M
1L
1K
1J
1I
1H
1G
1F
1E
1D
1C
#4500000
1!
1m
1="
0&#
1Y!
1>"
0<"
0%#
1$#
0Q!
0c
1B"
#5000000
0!
0m
0="
1&#
0Y!
0>"
1<"
1%#
1Q!
1b"
1c
0'#
0?"
1z!
1{!
1|!
1}!
1~!
1!"
1""
1#"
1$"
1%"
1&"
1'"
1("
1)"
1*"
1+"
1,"
1-"
1."
1/"
10"
11"
12"
13"
14"
15"
16"
17"
18"
19"
1:"
1;"
0Z!
0[!
0\!
0]!
0^!
0_!
0`!
0a!
0b!
0c!
0d!
0e!
0f!
0g!
0h!
0i!
0j!
0k!
0l!
0m!
0n!
0o!
0p!
0q!
0r!
0s!
0t!
0u!
0v!
0w!
0x!
0y!
1P!
1O!
1N!
1M!
1L!
1K!
1J!
1I!
1H!
1G!
1F!
1E!
1D!
1C!
1B!
1A!
1@!
1?!
1>!
1=!
1<!
1;!
1:!
19!
18!
17!
16!
15!
14!
13!
12!
11!
00!
0/!
0.!
0-!
0,!
0+!
0*!
0)!
0(!
0'!
0&!
0%!
0$!
0#!
0"!
0!!
0~
0}
0|
0{
0z
0y
0x
0w
0v
0u
0t
0s
0r
0q
0p
0o
1B
1A
1@
1?
1>
1=
1<
1;
1:
19
18
17
16
15
14
13
12
11
10
1/
1.
1-
1,
1+
1*
1)
1(
1'
1&
1%
1$
1#
0b
0a
0`
0_
0^
0]
0\
0[
0Z
0Y
0X
0W
0V
0U
0T
0S
0R
0Q
0P
0O
0N
0M
0L
0K
0J
0I
0H
0G
0F
0E
0D
0C
#5500000
1!
1m
1="
0&#
1Y!
1>"
0<"
0%#
0$#
0Q!
0c
0B"
#6000000
0!
0m
0="
1&#
0Y!
0>"
1<"
1%#
1Q!
0b"
1c
1'#
1?"
0z!
0{!
0|!
0}!
0~!
0!"
0""
0#"
0$"
0%"
0&"
0'"
0("
0)"
0*"
0+"
0,"
0-"
0."
0/"
00"
01"
02"
03"
04"
05"
06"
07"
08"
09"
0:"
0;"
1Z!
1[!
1\!
1]!
1^!
1_!
1`!
1a!
1b!
1c!
1d!
1e!
1f!
1g!
1h!
1i!
1j!
1k!
1l!
1m!
1n!
1o!
1p!
1q!
1r!
1s!
1t!
1u!
1v!
1w!
1x!
1y!
0P!
0O!
0N!
0M!
0L!
0K!
0J!
0I!
0H!
0G!
0F!
0E!
0D!
0C!
0B!
0A!
0@!
0?!
0>!
0=!
0<!
0;!
0:!
09!
08!
07!
06!
05!
04!
03!
02!
01!
10!
1/!
1.!
1-!
1,!
1+!
1*!
1)!
1(!
1'!
1&!
1%!
1$!
1#!
1"!
1!!
1~
1}
1|
1{
1z
1y
1x
1w
1v
1u
1t
1s
1r
1q
1p
1o
0B
0A
0@
0?
0>
0=
0<
0;
0:
09
08
07
06
05
04
03
02
01
00
0/
0.
0-
0,
0+
0*
0)
0(
0'
0&
0%
0$
0#
1b
1a
1`
1_
1^
1]
1\
1[
1Z
1Y
1X
1W
1V
1U
1T
1S
1R
1Q
1P
1O
1N
1M
1L
1K
1J
1I
1H
1G
1F
1E
1D
1C
#6500000
1!
1m
1="
0&#
1Y!
1>"
0<"
0%#
1$#
0Q!
0c
1B"
#7000000
0!
0m
0="
1&#
0Y!
0>"
1<"
1%#
1Q!
1b"
1c
0'#
0?"
1z!
1{!
1|!
1}!
1~!
1!"
1""
1#"
1$"
1%"
1&"
1'"
1("
1)"
1*"
1+"
1,"
1-"
1."
1/"
10"
11"
12"
13"
14"
15"
16"
17"
18"
19"
1:"
1;"
0Z!
0[!
0\!
0]!
0^!
0_!
0`!
0a!
0b!
0c!
0d!
0e!
0f!
0g!
0h!
0i!
0j!
0k!
0l!
0m!
0n!
0o!
0p!
0q!
0r!
0s!
0t!
0u!
0v!
0w!
0x!
0y!
1P!
1O!
1N!
1M!
1L!
1K!
1J!
1I!
1H!
1G!
1F!
1E!
1D!
1C!
1B!
1A!
1@!
1?!
1>!
1=!
1<!
1;!
1:!
19!
18!
17!
16!
15!
14!
13!
12!
11!
00!
0/!
0.!
0-!
0,!
0+!
0*!
0)!
0(!
0'!
0&!
0%!
0$!
0#!
0"!
0!!
0~
0}
0|
0{
0z
0y
0x
0w
0v
0u
0t
0s
0r
0q
0p
0o
1B
1A
1@
1?
1>
1=
1<
1;
1:
19
18
17
16
15
14
13
12
11
10
1/
1.
1-
1,
1+
1*
1)
1(
1'
1&
1%
1$
1#
0b
0a
0`
0_
0^
0]
0\
0[
0Z
0Y
0X
0W
0V
0U
0T
0S
0R
0Q
0P
0O
0N
0M
0L
0K
0J
0I
0H
0G
0F
0E
0D
0C
#7500000
1!
1m
1="
0&#
1Y!
1>"
0<"
0%#
0$#
0Q!
0c
0B"
#8000000
0!
0m
0="
1&#
0Y!
0>"
1<"
1%#
1Q!
0b"
1c
1'#
1?"
0z!
0{!
0|!
0}!
0~!
0!"
0""
0#"
0$"
0%"
0&"
0'"
0("
0)"
0*"
0+"
0,"
0-"
0."
0/"
00"
01"
02"
03"
04"
05"
06"
07"
08"
09"
0:"
0;"
1Z!
1[!
1\!
1]!
1^!
1_!
1`!
1a!
1b!
1c!
1d!
1e!
1f!
1g!
1h!
1i!
1j!
1k!
1l!
1m!
1n!
1o!
1p!
1q!
1r!
1s!
1t!
1u!
1v!
1w!
1x!
1y!
0P!
0O!
0N!
0M!
0L!
0K!
0J!
0I!
0H!
0G!
0F!
0E!
0D!
0C!
0B!
0A!
0@!
0?!
0>!
0=!
0<!
0;!
0:!
09!
08!
07!
06!
05!
04!
03!
02!
01!
10!
1/!
1.!
1-!
1,!
1+!
1*!
1)!
1(!
1'!
1&!
1%!
1$!
1#!
1"!
1!!
1~
1}
1|
1{
1z
1y
1x
1w
1v
1u
1t
1s
1r
1q
1p
1o
0B
0A
0@
0?
0>
0=
0<
0;
0:
09
08
07
06
05
04
03
02
01
00
0/
0.
0-
0,
0+
0*
0)
0(
0'
0&
0%
0$
0#
1b
1a
1`
1_
1^
1]
1\
1[
1Z
1Y
1X
1W
1V
1U
1T
1S
1R
1Q
1P
1O
1N
1M
1L
1K
1J
1I
1H
1G
1F
1E
1D
1C
#8500000
1!
1m
1="
0&#
1Y!
1>"
0<"
0%#
1$#
0Q!
0c
1B"
#9000000
0!
0m
0="
1&#
0Y!
0>"
1<"
1%#
1Q!
1b"
1c
0'#
0?"
1z!
1{!
1|!
1}!
1~!
1!"
1""
1#"
1$"
1%"
1&"
1'"
1("
1)"
1*"
1+"
1,"
1-"
1."
1/"
10"
11"
12"
13"
14"
15"
16"
17"
18"
19"
1:"
1;"
0Z!
0[!
0\!
0]!
0^!
0_!
0`!
0a!
0b!
0c!
0d!
0e!
0f!
0g!
0h!
0i!
0j!
0k!
0l!
0m!
0n!
0o!
0p!
0q!
0r!
0s!
0t!
0u!
0v!
0w!
0x!
0y!
1P!
1O!
1N!
1M!
1L!
1K!
1J!
1I!
1H!
1G!
1F!
1E!
1D!
1C!
1B!
1A!
1@!
1?!
1>!
1=!
1<!
1;!
1:!
19!
18!
17!
16!
15!
14!
13!
12!
11!
00!
0/!
0.!
0-!
0,!
0+!
0*!
0)!
0(!
0'!
0&!
0%!
0$!
0#!
0"!
0!!
0~
0}
0|
0{
0z
0y
0x
0w
0v
0u
0t
0s
0r
0q
0p
0o
1B
1A
1@
1?
1>
1=
1<
1;
1:
19
18
17
16
15
14
13
12
11
10
1/
1.
1-
1,
1+
1*
1)
1(
1'
1&
1%
1$
1#
0b
0a
0`
0_
0^
0]
0\
0[
0Z
0Y
0X
0W
0V
0U
0T
0S
0R
0Q
0P
0O
0N
0M
0L
0K
0J
0I
0H
0G
0F
0E
0D
0C
#9500000
1!
1m
1="
0&#
1Y!
1>"
0<"
0%#
0$#
0Q!
0c
0B"
#10000000
0!
0m
0="
1&#
0Y!
0>"
1<"
1%#
1Q!
0b"
1c
1'#
1?"
0z!
0{!
0|!
0}!
0~!
0!"
0""
0#"
0$"
0%"
0&"
0'"
0("
0)"
0*"
0+"
0,"
0-"
0."
0/"
00"
01"
02"
03"
04"
05"
06"
07"
08"
09"
0:"
0;"
1Z!
1[!
1\!
1]!
1^!
1_!
1`!
1a!
1b!
1c!
1d!
1e!
1f!
1g!
1h!
1i!
1j!
1k!
1l!
1m!
1n!
1o!
1p!
1q!
1r!
1s!
1t!
1u!
1v!
1w!
1x!
1y!
0P!
0O!
0N!
0M!
0L!
0K!
0J!
0I!
0H!
0G!
0F!
0E!
0D!
0C!
0B!
0A!
0@!
0?!
0>!
0=!
0<!
0;!
0:!
09!
08!
07!
06!
05!
04!
03!
02!
01!
10!
1/!
1.!
1-!
1,!
1+!
1*!
1)!
1(!
1'!
1&!
1%!
1$!
1#!
1"!
1!!
1~
1}
1|
1{
1z
1y
1x
1w
1v
1u
1t
1s
1r
1q
1p
1o
0B
0A
0@
0?
0>
0=
0<
0;
0:
09
08
07
06
05
04
03
02
01
00
0/
0.
0-
0,
0+
0*
0)
0(
0'
0&
0%
0$
0#
1b
1a
1`
1_
1^
1]
1\
1[
1Z
1Y
1X
1W
1V
1U
1T
1S
1R
1Q
1P
1O
1N
1M
1L
1K
1J
1I
1H
1G
1F
1E
1D
1C
#10500000
1!
1m
1="
0&#
1Y!
1>"
0<"
0%#
1$#
0Q!
0c
1B"
